<?xml version="1.0" standalone="no"?><!DOCTYPE svg PUBLIC "-//W3C//DTD SVG 1.1//EN" "http://www.w3.org/Graphics/SVG/1.1/DTD/svg11.dtd">
<svg class="icon" width="200px" height="200.00px" viewBox="0 0 1024 1024" version="1.1" xmlns="http://www.w3.org/2000/svg">
	<path stroke='currentColor' stroke-width="20" d='M536.850974 139.773394c144.44581 0 275.668457 91.078345 326.511425 226.659253l10.517541 28.028357 29.898961 1.38044c49.862641 2.289136 88.916099 43.141566 88.916099 92.967368s-39.036062 90.659813-88.898703 92.967368l-29.898961 1.38044-10.517541 28.028357c-50.861388 135.563512-182.065616 226.659253-326.529845 226.659253-144.282081 0-275.450493-90.968851-326.366116-226.369657l-11.098779-29.427216L167.960345 582.047356c-51.442626 0-93.276407-41.832757-93.276407-93.239568 0-51.424206 41.833781-93.239568 93.312222-93.239568l31.42471 0 11.062963-29.427216C261.400481 230.760664 392.56787 139.773394 536.850974 139.773394M536.850974 94.361111c-168.968319 0-312.706001 106.463754-368.871185 255.79585-0.036839 0-0.036839 0-0.036839 0-76.600609 0-138.687666 62.068637-138.687666 138.65185 0 76.564793 62.087057 138.65185 138.687666 138.65185 0 0 0 0 0.036839 0 56.165184 149.332097 199.902866 255.79585 368.871185 255.79585 169.095209 0 312.960805-106.609063 369.034914-256.123308 73.54911-3.396353 132.202974-63.940265 132.202974-138.324392 0-74.402547-58.653865-134.945435-132.221394-138.342812C849.792335 200.988594 705.946183 94.361111 536.850974 94.361111L536.850974 94.361111z'  /><path d='M531.273955 751.58975c-75.015507 0-136.045489-61.037145-136.045489-136.063909l52.188616 0c0 46.248324 37.617759 83.875293 83.856873 83.875293 46.258557 0 83.891665-37.626969 83.891665-83.875293l52.188616 0C667.35526 690.551582 606.308905 751.58975 531.273955 751.58975z'  /><path d='M692.250253 406.740678 376.709693 406.740678c-39.59888 0-71.732741 32.115442-71.732741 71.732741 0 39.59888 32.151257 71.714322 71.732741 71.714322l76.509535 0c32.333406 0 59.398832-21.579481 68.316945-51.006697l25.921369 0c8.919137 29.427216 35.947723 51.006697 68.316945 51.006697l76.492138 0c39.635719 0 71.732741-32.115442 71.732741-71.714322C763.982994 438.85612 731.867552 406.740678 692.250253 406.740678z'  />
</svg>