<?xml version="1.0" standalone="no"?><!DOCTYPE svg PUBLIC "-//W3C//DTD SVG 1.1//EN" "http://www.w3.org/Graphics/SVG/1.1/DTD/svg11.dtd">
<svg class="icon" width="200px" height="200.00px" viewBox="0 0 1024 1024" version="1.1" xmlns="http://www.w3.org/2000/svg">
	<path d='M690.3 717.9L675.2 733c-12.5 12.5-32.8 12.5-45.3 0L473 576c-13.7-3.6-23.8-16-23.8-30.8v-320c0-17.7 14.3-32 32-32h21.3c17.7 0 32 14.3 32 32v291.7l155.8 155.8c12.5 12.4 12.5 32.7 0 45.2zM512 0C229.2 0 0 229.2 0 512s229.2 512 512 512 512-229.2 512-512S794.8 0 512 0z' /><path transform='scale(5.12)' d='m 126.59314,144.81375 c -2.04731,-0.48155 -2.16033,-0.58437 -18.13726,-16.49953 -12.249739,-12.20239 -16.197923,-15.99466 -17.084815,-16.41012 -1.278449,-0.5989 -2.497662,-1.84958 -3.105157,-3.18529 -0.36123,-0.79425 -0.398261,-3.90667 -0.398261,-33.473712 0,-29.792474 0.03487,-32.674814 0.405105,-33.490089 0.632845,-1.393535 2.05392,-2.797347 3.431775,-3.390084 1.143159,-0.491774 1.577951,-0.533507 4.716089,-0.452667 3.895284,0.100343 4.799444,0.395077 6.237914,2.033407 1.608,1.831404 1.50814,-0.276695 1.50814,31.837443 v 29.198732 l 15.58012,15.563 c 9.00079,8.99089 15.80301,15.97701 16.10792,16.5434 0.73533,1.3659 0.73834,4.01606 0.006,5.39215 -0.67628,1.27096 -4.90823,5.40947 -5.98484,5.85269 -0.98713,0.40638 -2.59672,0.64206 -3.28286,0.48067 z' style='fill:white;stroke-width:0.245098' /> <path transform='scale(5.12)' d='M 92.401961,199.61839 C 70.20677,197.68512 50.409539,189.31073 34.068627,174.94291 14.7476,157.95482 2.842999,134.43705 0.49830554,108.62409 c -0.33865289,-3.72826 -0.33865289,-13.519916 0,-17.248178 C 3.2660806,60.905201 19.377995,33.762147 44.730392,16.860003 58.021809,7.9987738 72.613086,2.6844608 89.093137,0.70257789 94.212221,0.08695924 105.71404,0.08475244 110.90686,0.6983926 c 12.40284,1.4656549 23.21879,4.7020954 34.06863,10.1942994 9.21815,4.666241 16.93702,10.139206 24.22159,17.174004 17.52895,16.927922 28.09702,39.00563 30.30461,63.309216 0.33866,3.728262 0.33866,13.519918 0,17.248178 -2.75701,30.3523 -18.83668,57.52691 -43.98698,74.33795 -13.49267,9.0188 -27.85744,14.28383 -44.4853,16.30489 -3.90811,0.47502 -14.840724,0.6813 -18.627449,0.35146 z m 37.990199,-55.26681 c 1.25349,-0.63084 5.10516,-4.46572 5.75217,-5.72711 0.65167,-1.27048 0.76075,-3.38768 0.25506,-4.95084 -0.4044,-1.25008 -1.27096,-2.16617 -16.20744,-17.13384 L 104.41176,100.72665 V 71.551154 42.375659 l -0.63486,-1.274 c -0.76109,-1.527311 -1.99219,-2.600085 -3.5946,-3.132321 -0.920285,-0.305669 -1.950886,-0.373784 -4.664631,-0.308299 -3.275902,0.07905 -3.551152,0.123914 -4.621738,0.753272 -1.283507,0.754525 -2.234941,1.78751 -2.853534,3.09812 -0.38986,0.825993 -0.419848,3.226638 -0.419848,33.610118 0,32.684521 4.9e-4,32.721801 0.512706,33.823531 0.739257,1.5903 1.663618,2.58125 2.985662,3.20073 0.892975,0.41844 4.753686,4.1248 16.844773,16.17133 8.62745,8.59567 16.0723,15.82566 16.54411,16.06665 1.77755,0.90791 4.03769,0.89515 5.88236,-0.0332 z'  />
</svg>